<?xml version="1.0" encoding="utf-8"?>
<!-- Generator: Adobe Illustrator 23.0.1, SVG Export Plug-In . SVG Version: 6.00 Build 0)  -->
<svg version="1.1" id="Layer_1" xmlns="http://www.w3.org/2000/svg" xmlns:xlink="http://www.w3.org/1999/xlink" x="0px" y="0px"
	 viewBox="0 0 40.85 20.35" style="enable-background:new 0 0 40.85 20.35;" xml:space="preserve">
<style type="text/css">
	.st0{fill:#F3F3F3;}
</style>
<polygon class="st0" points="40.78,0 20.42,20.35 0.07,0 "/>
</svg>
