<?xml version="1.0" encoding="utf-8"?>
<!-- Generator: Adobe Illustrator 23.0.1, SVG Export Plug-In . SVG Version: 6.00 Build 0)  -->
<svg version="1.1" id="Layer_1" xmlns="http://www.w3.org/2000/svg" xmlns:xlink="http://www.w3.org/1999/xlink" x="0px" y="0px"
	 viewBox="0 0 63.12 91.78" style="enable-background:new 0 0 63.12 91.78;" xml:space="preserve">
<style type="text/css">
	.st0{opacity:0.2;fill:#8A8C8E;}
	.st1{opacity:0.2;fill:#D1D3D4;}
	.st2{opacity:0.2;fill:#58595B;}
	.st3{opacity:0.2;fill:#B1B3B6;}
	.st4{opacity:0.2;fill:#77787B;}
</style>
<polygon class="st0" points="0,91.78 0,64.08 22.81,56.57 63.12,70.42 "/>
<polygon class="st1" points="40.31,35.21 0,49.06 22.81,56.57 63.12,42.72 "/>
<polygon class="st2" points="22.81,56.57 63.12,42.72 63.12,70.42 "/>
<polygon class="st3" points="63.12,0 63.12,27.7 40.31,35.21 0,21.36 "/>
<polygon class="st4" points="40.31,35.21 0,49.06 0,21.36 "/>
</svg>
