{
  "17373": {
    "id": 17373,
    "name": "Kimun Press SpA"
  },
  "14661": {
    "id": 14661,
    "name": "Lund University Library"
  },
  "20310": {
    "id": 20310,
    "name": "Niva Inc"
  },
  "14415": {
    "id": 14415,
    "name": "INASP"
  },
  "14689": {
    "id": 14689,
    "name": "Earticle"
  },
  "9061": {
    "id": 9061,
    "name": "Editorum, LLC"
  },
  "14517": {
    "id": 14517,
    "name": "University of Toronto"
  },
  "14745": {
    "id": 14745,
    "name": "Tubitak Ulakbim DergiPark"
  },
  "14747": {
    "id": 14747,
    "name": "Infotegra S.A.S."
  },
  "15953": {
    "id": 15953,
    "name": "LIBCOM Piotr Karwasinski"
  },
  "14754": {
    "id": 14754,
    "name": "National and University Library in Zagreb"
  },
  "10369": {
    "id": 10369,
    "name": "Open Access Scholarly Publishers Association (OASPA)"
  },
  "15963": {
    "id": 15963,
    "name": "Applied and Natural Science Foundation"
  },
  "14784": {
    "id": 14784,
    "name": "Associacao Brasileira de Editores Cientificos do Brasil (ABEC Brasil)"
  },
  "14591": {
    "id": 14591,
    "name": "bepress"
  },
  "13715": {
    "id": 13715,
    "name": "Han Yazilim Bilisim Hizmetleri"
  },
  "14599": {
    "id": 14599,
    "name": "Korea Scholar"
  },
  "13801": {
    "id": 13801,
    "name": "Airiti, Inc."
  },
  "14606": {
    "id": 14606,
    "name": "M2 Communications"
  },
  "18692": {
    "id": 18692,
    "name": "Xercode Media Software S.L"
  },
  "13913": {
    "id": 13913,
    "name": "BAYT Bilimsel Arastirmalar Basin Yayin Ltd."
  },
  "13954": {
    "id": 13954,
    "name": "Nurimedia Co., Ltd."
  },
  "13963": {
    "id": 13963,
    "name": "Wanfang Data CO.,LTD and Wanfang Data CORP. (INTL) LTD"
  },
  "18761": {
    "id": 18761,
    "name": "Research and Social Study Institute (ReSSI)"
  },
  "14619": {
    "id": 14619,
    "name": "ACSESS - Alliance of Crop, Soil, and Environmental Science Societies"
  },
  "14052": {
    "id": 14052,
    "name": "Korean Studies Information (KSI)"
  },
  "14622": {
    "id": 14622,
    "name": "Inforang, Ltd."
  },
  "14623": {
    "id": 14623,
    "name": "Informatics Publishing"
  },
  "14071": {
    "id": 14071,
    "name": "Public Knowledge Project (PKP)"
  },
  "16686": {
    "id": 16686,
    "name": "Cambridge International Academics"
  },
  "14909": {
    "id": 14909,
    "name": "National Research Foundation of Korea"
  },
  "14910": {
    "id": 14910,
    "name": "NEICON ISP"
  },
  "14953": {
    "id": 14953,
    "name": "Open Academia"
  },
  "14962": {
    "id": 14962,
    "name": "URAN Publishing Services"
  },
  "19846": {
    "id": 19846,
    "name": "Aliansi Pengelola Jurnal Ekonomi dan Bisnis Indonesia"
  },
  "20012": {
    "id": 20012,
    "name": "Meta-datos"
  },
  "14999": {
    "id": 14999,
    "name": "ONLiNE Bilgi Hizmetleri, A.S."
  },
  "15007": {
    "id": 15007,
    "name": "Journals and Authors SAS"
  },
  "16722": {
    "id": 16722,
    "name": "Ubitech Solutions Pvt Ltd"
  },
  "15012": {
    "id": 15012,
    "name": "Prepress Projects, Ltd."
  },
  "16051": {
    "id": 16051,
    "name": "Open Science in Ukraine"
  },
  "15040": {
    "id": 15040,
    "name": "Open Journal Systems Chile"
  },
  "15044": {
    "id": 15044,
    "name": "Guhmok Publishing Co."
  },
  "15061": {
    "id": 15061,
    "name": "Kyobobook Center"
  },
  "16596": {
    "id": 16596,
    "name": "Journals Club and Co."
  },
  "15065": {
    "id": 15065,
    "name": "Asociacion Uruguaya de Revistas Academicas (AURA)"
  },
  "18733": {
    "id": 18733,
    "name": "Neliti - PT Neliti Teknologi Indonesia"
  },
  "16597": {
    "id": 16597,
    "name": "Acesso Academico"
  },
  "15106": {
    "id": 15106,
    "name": "Author Cafe Private Ltd."
  },
  "15108": {
    "id": 15108,
    "name": "Indonesian Digital Entertainment Arts and Sciences (IDEAS) Lab"
  },
  "15117": {
    "id": 15117,
    "name": "Relawan Jurnal Indonesia"
  },
  "15123": {
    "id": 15123,
    "name": "CleverMind Solutions Private Limited"
  },
  "15138": {
    "id": 15138,
    "name": "MRI Publication Pvt. Ltd. (OPC)"
  },
  "15140": {
    "id": 15140,
    "name": "Avicenna FZ LLC"
  },
  "16598": {
    "id": 16598,
    "name": "Association for Scientific Computing Electrical and Engineering (ASCEE)"
  },
  "18214": {
    "id": 18214,
    "name": "ISWAY"
  },
  "17176": {
    "id": 17176,
    "name": "Forum Pengelola Jurnal Manajemen"
  }
}