[
	"4f383981f00a88399e26bc0c5661b9f8b17c141381fdebc3f9512089",
	"*crossref.org/brand",
	".*crossref.org/categories",
	".*crossref.org/blog/page",
	"6ab088b94a2636c487bcc7d9ee4a2fd508e6ad283bdb82ce7d615687"
]
