<?xml version="1.0" encoding="utf-8"?>
<!-- Generator: Adobe Illustrator 15.1.0, SVG Export Plug-In . SVG Version: 6.00 Build 0)  -->
<!DOCTYPE svg PUBLIC "-//W3C//DTD SVG 1.1//EN" "http://www.w3.org/Graphics/SVG/1.1/DTD/svg11.dtd">
<svg version="1.1" id="Layer_1" xmlns="http://www.w3.org/2000/svg" xmlns:xlink="http://www.w3.org/1999/xlink" x="0px" y="0px"
	 width="61.667px" height="120.833px" viewBox="0 0 61.667 120.833" enable-background="new 0 0 61.667 120.833"
	 xml:space="preserve">
<polygon fill="#E0DACD" points="14.667,77.584 0,96.249 17,91.917 45.667,77.249 "/>
<polygon fill="#E0DACD" points="42.333,42.917 41.333,56.583 45.667,77.249 61.667,60.25 53.333,28.917 "/>
<polygon fill="#555A59" points="21,0 42.333,42.917 61.667,60.25 53.333,28.917 "/>
<polygon fill="#E83F4B" points="21,0 21,43.234 41.333,56.583 42.333,42.917 "/>
<polygon fill="#E83F4B" points="17,108.583 45.21,78.057 45.667,77.25 45.664,77.25 17,91.917 16.45,92.058 2.333,106.917 "/>
<g>
	<polygon fill="#FFCF21" points="17,108.583 3.999,117.25 21,120.833 45.21,78.057 	"/>
</g>
<polygon fill="#00B5D8" points="45.667,77.25 21,120.833 52,94.917 61.667,60.25 "/>
<rect fill="#FFFFFF" width="42.333" height="42.917"/>
</svg>
